<svg width="9" height="7" viewBox="0 0 9 7" fill="none"
    xmlns="http://www.w3.org/2000/svg">
    <path d="M1.3125 2.03333L4.0525 4.77332C4.17741 4.89749 4.34638 4.96719 4.5225 4.96719C4.69862 4.96719 4.86759 4.89749 4.9925 4.77332L7.65917 2.10666" stroke="white" stroke-width="2.5" stroke-linecap="round" stroke-linejoin="bevel"/>
</svg>
